…
**NOTE:** In this past plot, the `theme` argument was used inside of
`plot_fl`. When either the first derivative or nitrite plots are
included with your falling limb plot, you must specify all ggplot2 theme
elements with the `theme` argument. This will apply your desired themes
to all of the plots. Otherwise, it will only apply it to the last plot.

To plot nitrite data with the falling limb classification, the nitrite
data must be in a separate column with corresponding sample points lined
up. You can use the `nitrification` data set as an example.

``` r
nitrification
```

    ## # A tibble: 536 x 4
    ##    site   date       chlorine nitrite
    ##    <chr>  <date>        <dbl>   <dbl>
    ##  1 Site 1 2013-10-02     0.66   0.195
    ##  2 Site 1 2013-10-09     0.54   0.198
    ##  3 Site 1 2013-10-16     0.7    0.189
    ##  4 Site 1 2013-10-23     0.68   0.211
    ##  5 Site 1 2013-10-30     0.52   0.181
    ##  6 Site 1 2013-11-06     0.65   0.133
    ##  7 Site 1 2013-11-13     0.88   0.105
    ##  8 Site 1 2013-11-20     0.79   0.102
    ##  9 Site 1 2013-11-27     1.09   0.064
    ## 10 Site 1 2013-12-04     0.88   0.058
    ## # ... with 526 more rows
…
